{
    "apiVersion": "v1",
    "kind":"UserPermissions",
    "domain":"accounts",
    "userid":"bob",
    "resources":[
        { "kind":"Account", "id":"bob-acct1", "actions":["Account.Read"] },
        { "kind":"Account", "id":"bob-acct2", "actions":["Account.Read"] },
        { "kind":"Account", "id":"bob-acct3", "actions":["Account.Read"] }
    ],
    "actions":["Account.List"]
}